423373bf-5fa5-4685-b368-e00287e000d6,66822.953125,37.521938323975,-106.98120117188,AUDI,A8,2017
43f2beeb-2c8b-4092-88b5-ec63aef881ee,33863.828125,37.030181884766,-106.69113922119,AUDI,Q5,2017
8e0790f5-0fea-4456-8773-dba61d28a8c9,111680.140625,39.178218841553,-106.04843902588,AUDI,A4,2018
